%YAML 1.1
%TAG !u! tag:unity3d.com,2011:
--- !u!1001 &5635941914502670330
PrefabInstance:
  m_ObjectHideFlags: 0
  serializedVersion: 2
  m_Modification:
    m_TransformParent: {fileID: 0}
    m_Modifications:
    - target: {fileID: 1847966876575892779, guid: dcd9834f9bb4e554ebec54a96cfb7b51,
        type: 3}
      propertyPath: m_LocalPosition.x
      value: 0
      objectReference: {fileID: 0}
    - target: {fileID: 1847966876575892779, guid: dcd9834f9bb4e554ebec54a96cfb7b51,
        type: 3}
      propertyPath: m_LocalPosition.y
      value: 0
      objectReference: {fileID: 0}
    - target: {fileID: 1847966876575892779, guid: dcd9834f9bb4e554ebec54a96cfb7b51,
        type: 3}
      propertyPath: m_LocalPosition.z
      value: 0
      objectReference: {fileID: 0}
    - target: {fileID: 1847966876575892779, guid: dcd9834f9bb4e554ebec54a96cfb7b51,
        type: 3}
      propertyPath: m_LocalRotation.x
      value: 0
      objectReference: {fileID: 0}
    - target: {fileID: 1847966876575892779, guid: dcd9834f9bb4e554ebec54a96cfb7b51,
        type: 3}
      propertyPath: m_LocalRotation.y
      value: 0
      objectReference: {fileID: 0}
    - target: {fileID: 1847966876575892779, guid: dcd9834f9bb4e554ebec54a96cfb7b51,
        type: 3}
      propertyPath: m_LocalRotation.z
      value: 0
      objectReference: {fileID: 0}
    - target: {fileID: 1847966876575892779, guid: dcd9834f9bb4e554ebec54a96cfb7b51,
        type: 3}
      propertyPath: m_LocalRotation.w
      value: 1
      objectReference: {fileID: 0}
    - target: {fileID: 1847966876575892779, guid: dcd9834f9bb4e554ebec54a96cfb7b51,
        type: 3}
      propertyPath: m_RootOrder
      value: 0
      objectReference: {fileID: 0}
    - target: {fileID: 1847966876575892779, guid: dcd9834f9bb4e554ebec54a96cfb7b51,
        type: 3}
      propertyPath: m_LocalEulerAnglesHint.x
      value: 0
      objectReference: {fileID: 0}
    - target: {fileID: 1847966876575892779, guid: dcd9834f9bb4e554ebec54a96cfb7b51,
        type: 3}
      propertyPath: m_LocalEulerAnglesHint.y
      value: 0
      objectReference: {fileID: 0}
    - target: {fileID: 1847966876575892779, guid: dcd9834f9bb4e554ebec54a96cfb7b51,
        type: 3}
      propertyPath: m_LocalEulerAnglesHint.z
      value: 0
      objectReference: {fileID: 0}
    - target: {fileID: 5587829445491353089, guid: dcd9834f9bb4e554ebec54a96cfb7b51,
        type: 3}
      propertyPath: m_LocalScale.x
      value: 1.5
      objectReference: {fileID: 0}
    - target: {fileID: 5587829445491353089, guid: dcd9834f9bb4e554ebec54a96cfb7b51,
        type: 3}
      propertyPath: m_LocalScale.z
      value: 1.5
      objectReference: {fileID: 0}
    - target: {fileID: 7441439070886993407, guid: dcd9834f9bb4e554ebec54a96cfb7b51,
        type: 3}
      propertyPath: m_Name
      value: Highlight
      objectReference: {fileID: 0}
    m_RemovedComponents: []
  m_SourcePrefab: {fileID: 100100000, guid: dcd9834f9bb4e554ebec54a96cfb7b51, type: 3}
